('C:\\Users\\francis_t\\Desktop\\Scripts\\repo\\gli_downloader\\dist\\downloadGUI.exe',
 True,
 False,
 False,
 None,
 None,
 False,
 False,
 '<?xml version="1.0" encoding="UTF-8" standalone="yes"?><assembly manifestVersion="1.0" xmlns="urn:schemas-microsoft-com:asm.v1"><assemblyIdentity name="downloadGUI" processorArchitecture="x86" type="win32" version="1.0.0.0"/><dependency><dependentAssembly><assemblyIdentity language="*" name="Microsoft.Windows.Common-Controls" processorArchitecture="*" publicKeyToken="6595b64144ccf1df" type="win32" version="6.0.0.0"/><compatibility xmlns="urn:schemas-microsoft-com:compatibility.v1"/></dependentAssembly></dependency><compatibility xmlns="urn:schemas-microsoft-com:compatibility.v1"><application><supportedOS Id="{e2011457-1546-43c5-a5fe-008deee3d3f0}"/><supportedOS Id="{35138b9a-5d96-4fbd-8e2d-a2440225f93a}"/><supportedOS Id="{4a2f28e3-53b9-4441-ba9c-d69d4a4a6e38}"/><supportedOS Id="{1f676c76-80e1-4239-95bb-83d0f6d0da78}"/><supportedOS Id="{8e0f7a12-bfb3-4fe8-b9a5-48fd50a15a9a}"/></application></compatibility></assembly>',
 True,
 'downloadGUI.pkg',
 [('PYZ-00.pyz',
   'C:\\Users\\francis_t\\Desktop\\Scripts\\repo\\gli_downloader\\build\\downloadGUI\\PYZ-00.pyz',
   'PYZ'),
  ('struct',
   'c:\\users\\francis_t\\appdata\\local\\programs\\python\\python37-32\\lib\\struct.pyo',
   'PYMODULE'),
  ('pyimod01_os_path',
   'c:\\users\\francis_t\\appdata\\local\\programs\\python\\python37-32\\lib\\site-packages\\PyInstaller\\loader\\pyimod01_os_path.pyc',
   'PYMODULE'),
  ('pyimod02_archive',
   'c:\\users\\francis_t\\appdata\\local\\programs\\python\\python37-32\\lib\\site-packages\\PyInstaller\\loader\\pyimod02_archive.pyc',
   'PYMODULE'),
  ('pyimod03_importers',
   'c:\\users\\francis_t\\appdata\\local\\programs\\python\\python37-32\\lib\\site-packages\\PyInstaller\\loader\\pyimod03_importers.pyc',
   'PYMODULE'),
  ('pyiboot01_bootstrap',
   'c:\\users\\francis_t\\appdata\\local\\programs\\python\\python37-32\\lib\\site-packages\\PyInstaller\\loader\\pyiboot01_bootstrap.py',
   'PYSOURCE'),
  ('pyi_rth_pyqt5',
   'c:\\users\\francis_t\\appdata\\local\\programs\\python\\python37-32\\lib\\site-packages\\PyInstaller\\loader\\rthooks\\pyi_rth_pyqt5.py',
   'PYSOURCE'),
  ('downloadGUI',
   'C:\\Users\\francis_t\\Desktop\\Scripts\\repo\\gli_downloader\\downloadGUI.py',
   'PYSOURCE'),
  ('VCRUNTIME140.dll',
   'c:\\users\\francis_t\\appdata\\local\\programs\\python\\python37-32\\VCRUNTIME140.dll',
   'BINARY'),
  ('python37.dll',
   'c:\\users\\francis_t\\appdata\\local\\programs\\python\\python37-32\\python37.dll',
   'BINARY'),
  ('PyQt5\\Qt\\plugins\\platforms\\qoffscreen.dll',
   'C:\\users\\francis_t\\appdata\\local\\programs\\python\\python37-32\\lib\\site-packages\\PyQt5\\Qt\\plugins\\platforms\\qoffscreen.dll',
   'BINARY'),
  ('PyQt5\\Qt\\plugins\\imageformats\\qjpeg.dll',
   'C:\\users\\francis_t\\appdata\\local\\programs\\python\\python37-32\\lib\\site-packages\\PyQt5\\Qt\\plugins\\imageformats\\qjpeg.dll',
   'BINARY'),
  ('PyQt5\\Qt\\plugins\\imageformats\\qtiff.dll',
   'C:\\users\\francis_t\\appdata\\local\\programs\\python\\python37-32\\lib\\site-packages\\PyQt5\\Qt\\plugins\\imageformats\\qtiff.dll',
   'BINARY'),
  ('PyQt5\\Qt\\plugins\\imageformats\\qtga.dll',
   'C:\\users\\francis_t\\appdata\\local\\programs\\python\\python37-32\\lib\\site-packages\\PyQt5\\Qt\\plugins\\imageformats\\qtga.dll',
   'BINARY'),
  ('PyQt5\\Qt\\plugins\\iconengines\\qsvgicon.dll',
   'C:\\users\\francis_t\\appdata\\local\\programs\\python\\python37-32\\lib\\site-packages\\PyQt5\\Qt\\plugins\\iconengines\\qsvgicon.dll',
   'BINARY'),
  ('PyQt5\\Qt\\plugins\\imageformats\\qsvg.dll',
   'C:\\users\\francis_t\\appdata\\local\\programs\\python\\python37-32\\lib\\site-packages\\PyQt5\\Qt\\plugins\\imageformats\\qsvg.dll',
   'BINARY'),
  ('PyQt5\\Qt\\plugins\\platforms\\qwindows.dll',
   'C:\\users\\francis_t\\appdata\\local\\programs\\python\\python37-32\\lib\\site-packages\\PyQt5\\Qt\\plugins\\platforms\\qwindows.dll',
   'BINARY'),
  ('PyQt5\\Qt\\plugins\\imageformats\\qwebp.dll',
   'C:\\users\\francis_t\\appdata\\local\\programs\\python\\python37-32\\lib\\site-packages\\PyQt5\\Qt\\plugins\\imageformats\\qwebp.dll',
   'BINARY'),
  ('PyQt5\\Qt\\plugins\\imageformats\\qico.dll',
   'C:\\users\\francis_t\\appdata\\local\\programs\\python\\python37-32\\lib\\site-packages\\PyQt5\\Qt\\plugins\\imageformats\\qico.dll',
   'BINARY'),
  ('PyQt5\\Qt\\plugins\\imageformats\\qwbmp.dll',
   'C:\\users\\francis_t\\appdata\\local\\programs\\python\\python37-32\\lib\\site-packages\\PyQt5\\Qt\\plugins\\imageformats\\qwbmp.dll',
   'BINARY'),
  ('PyQt5\\Qt\\plugins\\imageformats\\qicns.dll',
   'C:\\users\\francis_t\\appdata\\local\\programs\\python\\python37-32\\lib\\site-packages\\PyQt5\\Qt\\plugins\\imageformats\\qicns.dll',
   'BINARY'),
  ('PyQt5\\Qt\\plugins\\platforms\\qminimal.dll',
   'C:\\users\\francis_t\\appdata\\local\\programs\\python\\python37-32\\lib\\site-packages\\PyQt5\\Qt\\plugins\\platforms\\qminimal.dll',
   'BINARY'),
  ('PyQt5\\Qt\\plugins\\imageformats\\qgif.dll',
   'C:\\users\\francis_t\\appdata\\local\\programs\\python\\python37-32\\lib\\site-packages\\PyQt5\\Qt\\plugins\\imageformats\\qgif.dll',
   'BINARY'),
  ('_ssl',
   'c:\\users\\francis_t\\appdata\\local\\programs\\python\\python37-32\\DLLs\\_ssl.pyd',
   'EXTENSION'),
  ('pyexpat',
   'c:\\users\\francis_t\\appdata\\local\\programs\\python\\python37-32\\DLLs\\pyexpat.pyd',
   'EXTENSION'),
  ('unicodedata',
   'c:\\users\\francis_t\\appdata\\local\\programs\\python\\python37-32\\DLLs\\unicodedata.pyd',
   'EXTENSION'),
  ('_hashlib',
   'c:\\users\\francis_t\\appdata\\local\\programs\\python\\python37-32\\DLLs\\_hashlib.pyd',
   'EXTENSION'),
  ('_bz2',
   'c:\\users\\francis_t\\appdata\\local\\programs\\python\\python37-32\\DLLs\\_bz2.pyd',
   'EXTENSION'),
  ('_lzma',
   'c:\\users\\francis_t\\appdata\\local\\programs\\python\\python37-32\\DLLs\\_lzma.pyd',
   'EXTENSION'),
  ('_socket',
   'c:\\users\\francis_t\\appdata\\local\\programs\\python\\python37-32\\DLLs\\_socket.pyd',
   'EXTENSION'),
  ('select',
   'c:\\users\\francis_t\\appdata\\local\\programs\\python\\python37-32\\DLLs\\select.pyd',
   'EXTENSION'),
  ('_ctypes',
   'c:\\users\\francis_t\\appdata\\local\\programs\\python\\python37-32\\DLLs\\_ctypes.pyd',
   'EXTENSION'),
  ('_queue',
   'c:\\users\\francis_t\\appdata\\local\\programs\\python\\python37-32\\DLLs\\_queue.pyd',
   'EXTENSION'),
  ('PyQt5.QtGui',
   'c:\\users\\francis_t\\appdata\\local\\programs\\python\\python37-32\\lib\\site-packages\\PyQt5\\QtGui.pyd',
   'EXTENSION'),
  ('PyQt5.QtWidgets',
   'c:\\users\\francis_t\\appdata\\local\\programs\\python\\python37-32\\lib\\site-packages\\PyQt5\\QtWidgets.pyd',
   'EXTENSION'),
  ('PyQt5.QtCore',
   'c:\\users\\francis_t\\appdata\\local\\programs\\python\\python37-32\\lib\\site-packages\\PyQt5\\QtCore.pyd',
   'EXTENSION'),
  ('sip',
   'c:\\users\\francis_t\\appdata\\local\\programs\\python\\python37-32\\lib\\site-packages\\sip.pyd',
   'EXTENSION'),
  ('Qt5Gui.dll',
   'c:\\users\\francis_t\\appdata\\local\\programs\\python\\python37-32\\lib\\site-packages\\PyQt5\\Qt\\bin\\qt5gui.dll',
   'BINARY'),
  ('Qt5Core.dll',
   'c:\\users\\francis_t\\appdata\\local\\programs\\python\\python37-32\\lib\\site-packages\\PyQt5\\Qt\\bin\\qt5core.dll',
   'BINARY'),
  ('Qt5Svg.dll',
   'c:\\users\\francis_t\\appdata\\local\\programs\\python\\python37-32\\lib\\site-packages\\PyQt5\\Qt\\bin\\qt5svg.dll',
   'BINARY'),
  ('libcrypto-1_1.dll',
   'c:\\users\\francis_t\\appdata\\local\\programs\\python\\python37-32\\DLLs\\libcrypto-1_1.dll',
   'BINARY'),
  ('libssl-1_1.dll',
   'c:\\users\\francis_t\\appdata\\local\\programs\\python\\python37-32\\DLLs\\libssl-1_1.dll',
   'BINARY'),
  ('python3.dll',
   'c:\\users\\francis_t\\appdata\\local\\programs\\python\\python37-32\\python3.dll',
   'BINARY'),
  ('Qt5Widgets.dll',
   'c:\\users\\francis_t\\appdata\\local\\programs\\python\\python37-32\\lib\\site-packages\\PyQt5\\Qt\\bin\\qt5widgets.dll',
   'BINARY'),
  ('MSVCP140.dll',
   'c:\\users\\francis_t\\appdata\\local\\programs\\python\\python37-32\\lib\\site-packages\\PyQt5\\Qt\\bin\\MSVCP140.dll',
   'BINARY'),
  ('base_library.zip',
   'C:\\Users\\francis_t\\Desktop\\Scripts\\repo\\gli_downloader\\build\\downloadGUI\\base_library.zip',
   'DATA'),
  ('PyQt5\\translations\\qtbase_fr.qm',
   'C:\\users\\francis_t\\appdata\\local\\programs\\python\\python37-32\\lib\\site-packages\\PyQt5\\Qt\\translations\\qtbase_fr.qm',
   'DATA'),
  ('PyQt5\\translations\\qtbase_pl.qm',
   'C:\\users\\francis_t\\appdata\\local\\programs\\python\\python37-32\\lib\\site-packages\\PyQt5\\Qt\\translations\\qtbase_pl.qm',
   'DATA'),
  ('PyQt5\\translations\\qtbase_bg.qm',
   'C:\\users\\francis_t\\appdata\\local\\programs\\python\\python37-32\\lib\\site-packages\\PyQt5\\Qt\\translations\\qtbase_bg.qm',
   'DATA'),
  ('PyQt5\\translations\\qtbase_cs.qm',
   'C:\\users\\francis_t\\appdata\\local\\programs\\python\\python37-32\\lib\\site-packages\\PyQt5\\Qt\\translations\\qtbase_cs.qm',
   'DATA'),
  ('selenium\\webdriver\\firefox\\webdriver.xpi',
   'c:\\users\\francis_t\\appdata\\local\\programs\\python\\python37-32\\lib\\site-packages\\selenium\\webdriver\\firefox\\webdriver.xpi',
   'DATA'),
  ('selenium\\webdriver\\remote\\isDisplayed.js',
   'c:\\users\\francis_t\\appdata\\local\\programs\\python\\python37-32\\lib\\site-packages\\selenium\\webdriver\\remote\\isDisplayed.js',
   'DATA'),
  ('selenium\\webdriver\\firefox\\webdriver_prefs.json',
   'c:\\users\\francis_t\\appdata\\local\\programs\\python\\python37-32\\lib\\site-packages\\selenium\\webdriver\\firefox\\webdriver_prefs.json',
   'DATA'),
  ('PyQt5\\translations\\qtbase_en.qm',
   'C:\\users\\francis_t\\appdata\\local\\programs\\python\\python37-32\\lib\\site-packages\\PyQt5\\Qt\\translations\\qtbase_en.qm',
   'DATA'),
  ('PyQt5\\translations\\qtbase_ca.qm',
   'C:\\users\\francis_t\\appdata\\local\\programs\\python\\python37-32\\lib\\site-packages\\PyQt5\\Qt\\translations\\qtbase_ca.qm',
   'DATA'),
  ('PyQt5\\translations\\qtbase_gd.qm',
   'C:\\users\\francis_t\\appdata\\local\\programs\\python\\python37-32\\lib\\site-packages\\PyQt5\\Qt\\translations\\qtbase_gd.qm',
   'DATA'),
  ('selenium\\webdriver\\firefox\\x86\\x_ignore_nofocus.so',
   'c:\\users\\francis_t\\appdata\\local\\programs\\python\\python37-32\\lib\\site-packages\\selenium\\webdriver\\firefox\\x86\\x_ignore_nofocus.so',
   'DATA'),
  ('selenium\\webdriver\\firefox\\amd64\\x_ignore_nofocus.so',
   'c:\\users\\francis_t\\appdata\\local\\programs\\python\\python37-32\\lib\\site-packages\\selenium\\webdriver\\firefox\\amd64\\x_ignore_nofocus.so',
   'DATA'),
  ('PyQt5\\translations\\qtbase_ru.qm',
   'C:\\users\\francis_t\\appdata\\local\\programs\\python\\python37-32\\lib\\site-packages\\PyQt5\\Qt\\translations\\qtbase_ru.qm',
   'DATA'),
  ('PyQt5\\translations\\qtbase_ko.qm',
   'C:\\users\\francis_t\\appdata\\local\\programs\\python\\python37-32\\lib\\site-packages\\PyQt5\\Qt\\translations\\qtbase_ko.qm',
   'DATA'),
  ('PyQt5\\translations\\qtbase_de.qm',
   'C:\\users\\francis_t\\appdata\\local\\programs\\python\\python37-32\\lib\\site-packages\\PyQt5\\Qt\\translations\\qtbase_de.qm',
   'DATA'),
  ('PyQt5\\translations\\qtbase_hu.qm',
   'C:\\users\\francis_t\\appdata\\local\\programs\\python\\python37-32\\lib\\site-packages\\PyQt5\\Qt\\translations\\qtbase_hu.qm',
   'DATA'),
  ('PyQt5\\translations\\qtbase_lv.qm',
   'C:\\users\\francis_t\\appdata\\local\\programs\\python\\python37-32\\lib\\site-packages\\PyQt5\\Qt\\translations\\qtbase_lv.qm',
   'DATA'),
  ('PyQt5\\translations\\qtbase_fi.qm',
   'C:\\users\\francis_t\\appdata\\local\\programs\\python\\python37-32\\lib\\site-packages\\PyQt5\\Qt\\translations\\qtbase_fi.qm',
   'DATA'),
  ('selenium\\webdriver\\remote\\getAttribute.js',
   'c:\\users\\francis_t\\appdata\\local\\programs\\python\\python37-32\\lib\\site-packages\\selenium\\webdriver\\remote\\getAttribute.js',
   'DATA'),
  ('PyQt5\\translations\\qtbase_it.qm',
   'C:\\users\\francis_t\\appdata\\local\\programs\\python\\python37-32\\lib\\site-packages\\PyQt5\\Qt\\translations\\qtbase_it.qm',
   'DATA'),
  ('PyQt5\\Qt\\bin\\qt.conf',
   'C:\\users\\francis_t\\appdata\\local\\programs\\python\\python37-32\\lib\\site-packages\\PyQt5\\Qt\\bin\\qt.conf',
   'DATA'),
  ('PyQt5\\translations\\qtbase_es.qm',
   'C:\\users\\francis_t\\appdata\\local\\programs\\python\\python37-32\\lib\\site-packages\\PyQt5\\Qt\\translations\\qtbase_es.qm',
   'DATA'),
  ('PyQt5\\translations\\qtbase_sk.qm',
   'C:\\users\\francis_t\\appdata\\local\\programs\\python\\python37-32\\lib\\site-packages\\PyQt5\\Qt\\translations\\qtbase_sk.qm',
   'DATA'),
  ('PyQt5\\translations\\qtbase_ja.qm',
   'C:\\users\\francis_t\\appdata\\local\\programs\\python\\python37-32\\lib\\site-packages\\PyQt5\\Qt\\translations\\qtbase_ja.qm',
   'DATA'),
  ('PyQt5\\translations\\qtbase_da.qm',
   'C:\\users\\francis_t\\appdata\\local\\programs\\python\\python37-32\\lib\\site-packages\\PyQt5\\Qt\\translations\\qtbase_da.qm',
   'DATA'),
  ('PyQt5\\translations\\qtbase_he.qm',
   'C:\\users\\francis_t\\appdata\\local\\programs\\python\\python37-32\\lib\\site-packages\\PyQt5\\Qt\\translations\\qtbase_he.qm',
   'DATA'),
  ('PyQt5\\translations\\qtbase_uk.qm',
   'C:\\users\\francis_t\\appdata\\local\\programs\\python\\python37-32\\lib\\site-packages\\PyQt5\\Qt\\translations\\qtbase_uk.qm',
   'DATA'),
  ('downloadGUI.exe.manifest',
   'C:\\Users\\francis_t\\Desktop\\Scripts\\repo\\gli_downloader\\build\\downloadGUI\\downloadGUI.exe.manifest',
   'BINARY'),
  ('pyi-windows-manifest-filename downloadGUI.exe.manifest', '', 'OPTION')],
 [],
 False,
 False,
 1615922453,
 [('run.exe',
   'c:\\users\\francis_t\\appdata\\local\\programs\\python\\python37-32\\lib\\site-packages\\PyInstaller\\bootloader\\Windows-32bit\\run.exe',
   'EXECUTABLE')])
