('C:\\Users\\francis_t\\Desktop\\Scripts\\repo\\gli_downloader\\build\\downloadGUI\\PYZ-00.pyz',
 [('ntpath',
   'c:\\users\\francis_t\\appdata\\local\\programs\\python\\python37-32\\lib\\ntpath.py',
   'PYMODULE'),
  ('_strptime',
   'c:\\users\\francis_t\\appdata\\local\\programs\\python\\python37-32\\lib\\_strptime.py',
   'PYMODULE'),
  ('datetime',
   'c:\\users\\francis_t\\appdata\\local\\programs\\python\\python37-32\\lib\\datetime.py',
   'PYMODULE'),
  ('stringprep',
   'c:\\users\\francis_t\\appdata\\local\\programs\\python\\python37-32\\lib\\stringprep.py',
   'PYMODULE'),
  ('_py_abc',
   'c:\\users\\francis_t\\appdata\\local\\programs\\python\\python37-32\\lib\\_py_abc.py',
   'PYMODULE'),
  ('tracemalloc',
   'c:\\users\\francis_t\\appdata\\local\\programs\\python\\python37-32\\lib\\tracemalloc.py',
   'PYMODULE'),
  ('__future__',
   'c:\\users\\francis_t\\appdata\\local\\programs\\python\\python37-32\\lib\\__future__.py',
   'PYMODULE'),
  ('difflib',
   'c:\\users\\francis_t\\appdata\\local\\programs\\python\\python37-32\\lib\\difflib.py',
   'PYMODULE'),
  ('ast',
   'c:\\users\\francis_t\\appdata\\local\\programs\\python\\python37-32\\lib\\ast.py',
   'PYMODULE'),
  ('inspect',
   'c:\\users\\francis_t\\appdata\\local\\programs\\python\\python37-32\\lib\\inspect.py',
   'PYMODULE'),
  ('cmd',
   'c:\\users\\francis_t\\appdata\\local\\programs\\python\\python37-32\\lib\\cmd.py',
   'PYMODULE'),
  ('bdb',
   'c:\\users\\francis_t\\appdata\\local\\programs\\python\\python37-32\\lib\\bdb.py',
   'PYMODULE'),
  ('opcode',
   'c:\\users\\francis_t\\appdata\\local\\programs\\python\\python37-32\\lib\\opcode.py',
   'PYMODULE'),
  ('dis',
   'c:\\users\\francis_t\\appdata\\local\\programs\\python\\python37-32\\lib\\dis.py',
   'PYMODULE'),
  ('codeop',
   'c:\\users\\francis_t\\appdata\\local\\programs\\python\\python37-32\\lib\\codeop.py',
   'PYMODULE'),
  ('code',
   'c:\\users\\francis_t\\appdata\\local\\programs\\python\\python37-32\\lib\\code.py',
   'PYMODULE'),
  ('glob',
   'c:\\users\\francis_t\\appdata\\local\\programs\\python\\python37-32\\lib\\glob.py',
   'PYMODULE'),
  ('shlex',
   'c:\\users\\francis_t\\appdata\\local\\programs\\python\\python37-32\\lib\\shlex.py',
   'PYMODULE'),
  ('runpy',
   'c:\\users\\francis_t\\appdata\\local\\programs\\python\\python37-32\\lib\\runpy.py',
   'PYMODULE'),
  ('importlib._bootstrap',
   'c:\\users\\francis_t\\appdata\\local\\programs\\python\\python37-32\\lib\\importlib\\_bootstrap.py',
   'PYMODULE'),
  ('importlib._bootstrap_external',
   'c:\\users\\francis_t\\appdata\\local\\programs\\python\\python37-32\\lib\\importlib\\_bootstrap_external.py',
   'PYMODULE'),
  ('importlib.machinery',
   'c:\\users\\francis_t\\appdata\\local\\programs\\python\\python37-32\\lib\\importlib\\machinery.py',
   'PYMODULE'),
  ('importlib.util',
   'c:\\users\\francis_t\\appdata\\local\\programs\\python\\python37-32\\lib\\importlib\\util.py',
   'PYMODULE'),
  ('importlib.abc',
   'c:\\users\\francis_t\\appdata\\local\\programs\\python\\python37-32\\lib\\importlib\\abc.py',
   'PYMODULE'),
  ('importlib',
   'c:\\users\\francis_t\\appdata\\local\\programs\\python\\python37-32\\lib\\importlib\\__init__.py',
   'PYMODULE'),
  ('pkgutil',
   'c:\\users\\francis_t\\appdata\\local\\programs\\python\\python37-32\\lib\\pkgutil.py',
   'PYMODULE'),
  ('xml',
   'c:\\users\\francis_t\\appdata\\local\\programs\\python\\python37-32\\lib\\xml\\__init__.py',
   'PYMODULE'),
  ('xml.sax.expatreader',
   'c:\\users\\francis_t\\appdata\\local\\programs\\python\\python37-32\\lib\\xml\\sax\\expatreader.py',
   'PYMODULE'),
  ('xml.sax.saxutils',
   'c:\\users\\francis_t\\appdata\\local\\programs\\python\\python37-32\\lib\\xml\\sax\\saxutils.py',
   'PYMODULE'),
  ('urllib.request',
   'c:\\users\\francis_t\\appdata\\local\\programs\\python\\python37-32\\lib\\urllib\\request.py',
   'PYMODULE'),
  ('getpass',
   'c:\\users\\francis_t\\appdata\\local\\programs\\python\\python37-32\\lib\\getpass.py',
   'PYMODULE'),
  ('nturl2path',
   'c:\\users\\francis_t\\appdata\\local\\programs\\python\\python37-32\\lib\\nturl2path.py',
   'PYMODULE'),
  ('ftplib',
   'c:\\users\\francis_t\\appdata\\local\\programs\\python\\python37-32\\lib\\ftplib.py',
   'PYMODULE'),
  ('netrc',
   'c:\\users\\francis_t\\appdata\\local\\programs\\python\\python37-32\\lib\\netrc.py',
   'PYMODULE'),
  ('http.cookiejar',
   'c:\\users\\francis_t\\appdata\\local\\programs\\python\\python37-32\\lib\\http\\cookiejar.py',
   'PYMODULE'),
  ('urllib.response',
   'c:\\users\\francis_t\\appdata\\local\\programs\\python\\python37-32\\lib\\urllib\\response.py',
   'PYMODULE'),
  ('urllib.error',
   'c:\\users\\francis_t\\appdata\\local\\programs\\python\\python37-32\\lib\\urllib\\error.py',
   'PYMODULE'),
  ('xml.sax',
   'c:\\users\\francis_t\\appdata\\local\\programs\\python\\python37-32\\lib\\xml\\sax\\__init__.py',
   'PYMODULE'),
  ('xml.sax.handler',
   'c:\\users\\francis_t\\appdata\\local\\programs\\python\\python37-32\\lib\\xml\\sax\\handler.py',
   'PYMODULE'),
  ('xml.sax._exceptions',
   'c:\\users\\francis_t\\appdata\\local\\programs\\python\\python37-32\\lib\\xml\\sax\\_exceptions.py',
   'PYMODULE'),
  ('xml.sax.xmlreader',
   'c:\\users\\francis_t\\appdata\\local\\programs\\python\\python37-32\\lib\\xml\\sax\\xmlreader.py',
   'PYMODULE'),
  ('xml.parsers',
   'c:\\users\\francis_t\\appdata\\local\\programs\\python\\python37-32\\lib\\xml\\parsers\\__init__.py',
   'PYMODULE'),
  ('xml.parsers.expat',
   'c:\\users\\francis_t\\appdata\\local\\programs\\python\\python37-32\\lib\\xml\\parsers\\expat.py',
   'PYMODULE'),
  ('plistlib',
   'c:\\users\\francis_t\\appdata\\local\\programs\\python\\python37-32\\lib\\plistlib.py',
   'PYMODULE'),
  ('platform',
   'c:\\users\\francis_t\\appdata\\local\\programs\\python\\python37-32\\lib\\platform.py',
   'PYMODULE'),
  ('urllib.parse',
   'c:\\users\\francis_t\\appdata\\local\\programs\\python\\python37-32\\lib\\urllib\\parse.py',
   'PYMODULE'),
  ('tempfile',
   'c:\\users\\francis_t\\appdata\\local\\programs\\python\\python37-32\\lib\\tempfile.py',
   'PYMODULE'),
  ('tty',
   'c:\\users\\francis_t\\appdata\\local\\programs\\python\\python37-32\\lib\\tty.py',
   'PYMODULE'),
  ('pydoc_data',
   'c:\\users\\francis_t\\appdata\\local\\programs\\python\\python37-32\\lib\\pydoc_data\\__init__.py',
   'PYMODULE'),
  ('pydoc_data.topics',
   'c:\\users\\francis_t\\appdata\\local\\programs\\python\\python37-32\\lib\\pydoc_data\\topics.py',
   'PYMODULE'),
  ('html.entities',
   'c:\\users\\francis_t\\appdata\\local\\programs\\python\\python37-32\\lib\\html\\entities.py',
   'PYMODULE'),
  ('html',
   'c:\\users\\francis_t\\appdata\\local\\programs\\python\\python37-32\\lib\\html\\__init__.py',
   'PYMODULE'),
  ('ssl',
   'c:\\users\\francis_t\\appdata\\local\\programs\\python\\python37-32\\lib\\ssl.py',
   'PYMODULE'),
  ('http.client',
   'c:\\users\\francis_t\\appdata\\local\\programs\\python\\python37-32\\lib\\http\\client.py',
   'PYMODULE'),
  ('mimetypes',
   'c:\\users\\francis_t\\appdata\\local\\programs\\python\\python37-32\\lib\\mimetypes.py',
   'PYMODULE'),
  ('socketserver',
   'c:\\users\\francis_t\\appdata\\local\\programs\\python\\python37-32\\lib\\socketserver.py',
   'PYMODULE'),
  ('http',
   'c:\\users\\francis_t\\appdata\\local\\programs\\python\\python37-32\\lib\\http\\__init__.py',
   'PYMODULE'),
  ('http.server',
   'c:\\users\\francis_t\\appdata\\local\\programs\\python\\python37-32\\lib\\http\\server.py',
   'PYMODULE'),
  ('optparse',
   'c:\\users\\francis_t\\appdata\\local\\programs\\python\\python37-32\\lib\\optparse.py',
   'PYMODULE'),
  ('uu',
   'c:\\users\\francis_t\\appdata\\local\\programs\\python\\python37-32\\lib\\uu.py',
   'PYMODULE'),
  ('quopri',
   'c:\\users\\francis_t\\appdata\\local\\programs\\python\\python37-32\\lib\\quopri.py',
   'PYMODULE'),
  ('email.feedparser',
   'c:\\users\\francis_t\\appdata\\local\\programs\\python\\python37-32\\lib\\email\\feedparser.py',
   'PYMODULE'),
  ('email.parser',
   'c:\\users\\francis_t\\appdata\\local\\programs\\python\\python37-32\\lib\\email\\parser.py',
   'PYMODULE'),
  ('email',
   'c:\\users\\francis_t\\appdata\\local\\programs\\python\\python37-32\\lib\\email\\__init__.py',
   'PYMODULE'),
  ('calendar',
   'c:\\users\\francis_t\\appdata\\local\\programs\\python\\python37-32\\lib\\calendar.py',
   'PYMODULE'),
  ('email._parseaddr',
   'c:\\users\\francis_t\\appdata\\local\\programs\\python\\python37-32\\lib\\email\\_parseaddr.py',
   'PYMODULE'),
  ('email.utils',
   'c:\\users\\francis_t\\appdata\\local\\programs\\python\\python37-32\\lib\\email\\utils.py',
   'PYMODULE'),
  ('email.errors',
   'c:\\users\\francis_t\\appdata\\local\\programs\\python\\python37-32\\lib\\email\\errors.py',
   'PYMODULE'),
  ('email.header',
   'c:\\users\\francis_t\\appdata\\local\\programs\\python\\python37-32\\lib\\email\\header.py',
   'PYMODULE'),
  ('email._policybase',
   'c:\\users\\francis_t\\appdata\\local\\programs\\python\\python37-32\\lib\\email\\_policybase.py',
   'PYMODULE'),
  ('email.base64mime',
   'c:\\users\\francis_t\\appdata\\local\\programs\\python\\python37-32\\lib\\email\\base64mime.py',
   'PYMODULE'),
  ('email.encoders',
   'c:\\users\\francis_t\\appdata\\local\\programs\\python\\python37-32\\lib\\email\\encoders.py',
   'PYMODULE'),
  ('email.charset',
   'c:\\users\\francis_t\\appdata\\local\\programs\\python\\python37-32\\lib\\email\\charset.py',
   'PYMODULE'),
  ('base64',
   'c:\\users\\francis_t\\appdata\\local\\programs\\python\\python37-32\\lib\\base64.py',
   'PYMODULE'),
  ('email._encoded_words',
   'c:\\users\\francis_t\\appdata\\local\\programs\\python\\python37-32\\lib\\email\\_encoded_words.py',
   'PYMODULE'),
  ('hashlib',
   'c:\\users\\francis_t\\appdata\\local\\programs\\python\\python37-32\\lib\\hashlib.py',
   'PYMODULE'),
  ('bisect',
   'c:\\users\\francis_t\\appdata\\local\\programs\\python\\python37-32\\lib\\bisect.py',
   'PYMODULE'),
  ('random',
   'c:\\users\\francis_t\\appdata\\local\\programs\\python\\python37-32\\lib\\random.py',
   'PYMODULE'),
  ('email.generator',
   'c:\\users\\francis_t\\appdata\\local\\programs\\python\\python37-32\\lib\\email\\generator.py',
   'PYMODULE'),
  ('email.iterators',
   'c:\\users\\francis_t\\appdata\\local\\programs\\python\\python37-32\\lib\\email\\iterators.py',
   'PYMODULE'),
  ('urllib',
   'c:\\users\\francis_t\\appdata\\local\\programs\\python\\python37-32\\lib\\urllib\\__init__.py',
   'PYMODULE'),
  ('email._header_value_parser',
   'c:\\users\\francis_t\\appdata\\local\\programs\\python\\python37-32\\lib\\email\\_header_value_parser.py',
   'PYMODULE'),
  ('email.headerregistry',
   'c:\\users\\francis_t\\appdata\\local\\programs\\python\\python37-32\\lib\\email\\headerregistry.py',
   'PYMODULE'),
  ('email.quoprimime',
   'c:\\users\\francis_t\\appdata\\local\\programs\\python\\python37-32\\lib\\email\\quoprimime.py',
   'PYMODULE'),
  ('email.contentmanager',
   'c:\\users\\francis_t\\appdata\\local\\programs\\python\\python37-32\\lib\\email\\contentmanager.py',
   'PYMODULE'),
  ('email.policy',
   'c:\\users\\francis_t\\appdata\\local\\programs\\python\\python37-32\\lib\\email\\policy.py',
   'PYMODULE'),
  ('email.message',
   'c:\\users\\francis_t\\appdata\\local\\programs\\python\\python37-32\\lib\\email\\message.py',
   'PYMODULE'),
  ('bz2',
   'c:\\users\\francis_t\\appdata\\local\\programs\\python\\python37-32\\lib\\bz2.py',
   'PYMODULE'),
  ('lzma',
   'c:\\users\\francis_t\\appdata\\local\\programs\\python\\python37-32\\lib\\lzma.py',
   'PYMODULE'),
  ('_compression',
   'c:\\users\\francis_t\\appdata\\local\\programs\\python\\python37-32\\lib\\_compression.py',
   'PYMODULE'),
  ('gzip',
   'c:\\users\\francis_t\\appdata\\local\\programs\\python\\python37-32\\lib\\gzip.py',
   'PYMODULE'),
  ('tarfile',
   'c:\\users\\francis_t\\appdata\\local\\programs\\python\\python37-32\\lib\\tarfile.py',
   'PYMODULE'),
  ('py_compile',
   'c:\\users\\francis_t\\appdata\\local\\programs\\python\\python37-32\\lib\\py_compile.py',
   'PYMODULE'),
  ('zipfile',
   'c:\\users\\francis_t\\appdata\\local\\programs\\python\\python37-32\\lib\\zipfile.py',
   'PYMODULE'),
  ('shutil',
   'c:\\users\\francis_t\\appdata\\local\\programs\\python\\python37-32\\lib\\shutil.py',
   'PYMODULE'),
  ('socket',
   'c:\\users\\francis_t\\appdata\\local\\programs\\python\\python37-32\\lib\\socket.py',
   'PYMODULE'),
  ('webbrowser',
   'c:\\users\\francis_t\\appdata\\local\\programs\\python\\python37-32\\lib\\webbrowser.py',
   'PYMODULE'),
  ('pydoc',
   'c:\\users\\francis_t\\appdata\\local\\programs\\python\\python37-32\\lib\\pydoc.py',
   'PYMODULE'),
  ('getopt',
   'c:\\users\\francis_t\\appdata\\local\\programs\\python\\python37-32\\lib\\getopt.py',
   'PYMODULE'),
  ('pdb',
   'c:\\users\\francis_t\\appdata\\local\\programs\\python\\python37-32\\lib\\pdb.py',
   'PYMODULE'),
  ('unittest.util',
   'c:\\users\\francis_t\\appdata\\local\\programs\\python\\python37-32\\lib\\unittest\\util.py',
   'PYMODULE'),
  ('unittest.result',
   'c:\\users\\francis_t\\appdata\\local\\programs\\python\\python37-32\\lib\\unittest\\result.py',
   'PYMODULE'),
  ('string',
   'c:\\users\\francis_t\\appdata\\local\\programs\\python\\python37-32\\lib\\string.py',
   'PYMODULE'),
  ('_compat_pickle',
   'c:\\users\\francis_t\\appdata\\local\\programs\\python\\python37-32\\lib\\_compat_pickle.py',
   'PYMODULE'),
  ('pickle',
   'c:\\users\\francis_t\\appdata\\local\\programs\\python\\python37-32\\lib\\pickle.py',
   'PYMODULE'),
  ('logging',
   'c:\\users\\francis_t\\appdata\\local\\programs\\python\\python37-32\\lib\\logging\\__init__.py',
   'PYMODULE'),
  ('pprint',
   'c:\\users\\francis_t\\appdata\\local\\programs\\python\\python37-32\\lib\\pprint.py',
   'PYMODULE'),
  ('unittest.case',
   'c:\\users\\francis_t\\appdata\\local\\programs\\python\\python37-32\\lib\\unittest\\case.py',
   'PYMODULE'),
  ('unittest.suite',
   'c:\\users\\francis_t\\appdata\\local\\programs\\python\\python37-32\\lib\\unittest\\suite.py',
   'PYMODULE'),
  ('fnmatch',
   'c:\\users\\francis_t\\appdata\\local\\programs\\python\\python37-32\\lib\\fnmatch.py',
   'PYMODULE'),
  ('unittest.loader',
   'c:\\users\\francis_t\\appdata\\local\\programs\\python\\python37-32\\lib\\unittest\\loader.py',
   'PYMODULE'),
  ('unittest.runner',
   'c:\\users\\francis_t\\appdata\\local\\programs\\python\\python37-32\\lib\\unittest\\runner.py',
   'PYMODULE'),
  ('unittest.main',
   'c:\\users\\francis_t\\appdata\\local\\programs\\python\\python37-32\\lib\\unittest\\main.py',
   'PYMODULE'),
  ('unittest.signals',
   'c:\\users\\francis_t\\appdata\\local\\programs\\python\\python37-32\\lib\\unittest\\signals.py',
   'PYMODULE'),
  ('unittest',
   'c:\\users\\francis_t\\appdata\\local\\programs\\python\\python37-32\\lib\\unittest\\__init__.py',
   'PYMODULE'),
  ('doctest',
   'c:\\users\\francis_t\\appdata\\local\\programs\\python\\python37-32\\lib\\doctest.py',
   'PYMODULE'),
  ('token',
   'c:\\users\\francis_t\\appdata\\local\\programs\\python\\python37-32\\lib\\token.py',
   'PYMODULE'),
  ('struct',
   'c:\\users\\francis_t\\appdata\\local\\programs\\python\\python37-32\\lib\\struct.py',
   'PYMODULE'),
  ('gettext',
   'c:\\users\\francis_t\\appdata\\local\\programs\\python\\python37-32\\lib\\gettext.py',
   'PYMODULE'),
  ('textwrap',
   'c:\\users\\francis_t\\appdata\\local\\programs\\python\\python37-32\\lib\\textwrap.py',
   'PYMODULE'),
  ('argparse',
   'c:\\users\\francis_t\\appdata\\local\\programs\\python\\python37-32\\lib\\argparse.py',
   'PYMODULE'),
  ('tokenize',
   'c:\\users\\francis_t\\appdata\\local\\programs\\python\\python37-32\\lib\\tokenize.py',
   'PYMODULE'),
  ('copy',
   'c:\\users\\francis_t\\appdata\\local\\programs\\python\\python37-32\\lib\\copy.py',
   'PYMODULE'),
  ('stat',
   'c:\\users\\francis_t\\appdata\\local\\programs\\python\\python37-32\\lib\\stat.py',
   'PYMODULE'),
  ('genericpath',
   'c:\\users\\francis_t\\appdata\\local\\programs\\python\\python37-32\\lib\\genericpath.py',
   'PYMODULE'),
  ('posixpath',
   'c:\\users\\francis_t\\appdata\\local\\programs\\python\\python37-32\\lib\\posixpath.py',
   'PYMODULE'),
  ('signal',
   'c:\\users\\francis_t\\appdata\\local\\programs\\python\\python37-32\\lib\\signal.py',
   'PYMODULE'),
  ('_threading_local',
   'c:\\users\\francis_t\\appdata\\local\\programs\\python\\python37-32\\lib\\_threading_local.py',
   'PYMODULE'),
  ('threading',
   'c:\\users\\francis_t\\appdata\\local\\programs\\python\\python37-32\\lib\\threading.py',
   'PYMODULE'),
  ('selectors',
   'c:\\users\\francis_t\\appdata\\local\\programs\\python\\python37-32\\lib\\selectors.py',
   'PYMODULE'),
  ('subprocess',
   'c:\\users\\francis_t\\appdata\\local\\programs\\python\\python37-32\\lib\\subprocess.py',
   'PYMODULE'),
  ('os',
   'c:\\users\\francis_t\\appdata\\local\\programs\\python\\python37-32\\lib\\os.py',
   'PYMODULE'),
  ('contextlib',
   'c:\\users\\francis_t\\appdata\\local\\programs\\python\\python37-32\\lib\\contextlib.py',
   'PYMODULE'),
  ('typing',
   'c:\\users\\francis_t\\appdata\\local\\programs\\python\\python37-32\\lib\\typing.py',
   'PYMODULE'),
  ('downloadGUI_lib',
   'C:\\Users\\francis_t\\Desktop\\Scripts\\repo\\gli_downloader\\downloadGUI_lib.py',
   'PYMODULE'),
  ('misc',
   'C:\\Users\\francis_t\\Desktop\\Scripts\\repo\\gli_downloader\\misc.py',
   'PYMODULE'),
  ('json',
   'c:\\users\\francis_t\\appdata\\local\\programs\\python\\python37-32\\lib\\json\\__init__.py',
   'PYMODULE'),
  ('json.encoder',
   'c:\\users\\francis_t\\appdata\\local\\programs\\python\\python37-32\\lib\\json\\encoder.py',
   'PYMODULE'),
  ('json.decoder',
   'c:\\users\\francis_t\\appdata\\local\\programs\\python\\python37-32\\lib\\json\\decoder.py',
   'PYMODULE'),
  ('json.scanner',
   'c:\\users\\francis_t\\appdata\\local\\programs\\python\\python37-32\\lib\\json\\scanner.py',
   'PYMODULE'),
  ('automate_download',
   'C:\\Users\\francis_t\\Desktop\\Scripts\\repo\\gli_downloader\\automate_download.py',
   'PYMODULE'),
  ('selenium.webdriver.common.action_chains',
   'c:\\users\\francis_t\\appdata\\local\\programs\\python\\python37-32\\lib\\site-packages\\selenium\\webdriver\\common\\action_chains.py',
   'PYMODULE'),
  ('selenium.webdriver.common',
   'c:\\users\\francis_t\\appdata\\local\\programs\\python\\python37-32\\lib\\site-packages\\selenium\\webdriver\\common\\__init__.py',
   'PYMODULE'),
  ('selenium.webdriver.common.service',
   'c:\\users\\francis_t\\appdata\\local\\programs\\python\\python37-32\\lib\\site-packages\\selenium\\webdriver\\common\\service.py',
   'PYMODULE'),
  ('selenium.common.exceptions',
   'c:\\users\\francis_t\\appdata\\local\\programs\\python\\python37-32\\lib\\site-packages\\selenium\\common\\exceptions.py',
   'PYMODULE'),
  ('selenium.common',
   'c:\\users\\francis_t\\appdata\\local\\programs\\python\\python37-32\\lib\\site-packages\\selenium\\common\\__init__.py',
   'PYMODULE'),
  ('selenium.webdriver.common.actions.action_builder',
   'c:\\users\\francis_t\\appdata\\local\\programs\\python\\python37-32\\lib\\site-packages\\selenium\\webdriver\\common\\actions\\action_builder.py',
   'PYMODULE'),
  ('selenium.webdriver.common.actions.pointer_input',
   'c:\\users\\francis_t\\appdata\\local\\programs\\python\\python37-32\\lib\\site-packages\\selenium\\webdriver\\common\\actions\\pointer_input.py',
   'PYMODULE'),
  ('selenium.webdriver.remote.webelement',
   'c:\\users\\francis_t\\appdata\\local\\programs\\python\\python37-32\\lib\\site-packages\\selenium\\webdriver\\remote\\webelement.py',
   'PYMODULE'),
  ('selenium.webdriver.remote',
   'c:\\users\\francis_t\\appdata\\local\\programs\\python\\python37-32\\lib\\site-packages\\selenium\\webdriver\\remote\\__init__.py',
   'PYMODULE'),
  ('selenium.webdriver.remote.utils',
   'c:\\users\\francis_t\\appdata\\local\\programs\\python\\python37-32\\lib\\site-packages\\selenium\\webdriver\\remote\\utils.py',
   'PYMODULE'),
  ('selenium.webdriver.common.actions.input_device',
   'c:\\users\\francis_t\\appdata\\local\\programs\\python\\python37-32\\lib\\site-packages\\selenium\\webdriver\\common\\actions\\input_device.py',
   'PYMODULE'),
  ('uuid',
   'c:\\users\\francis_t\\appdata\\local\\programs\\python\\python37-32\\lib\\uuid.py',
   'PYMODULE'),
  ('ctypes.util',
   'c:\\users\\francis_t\\appdata\\local\\programs\\python\\python37-32\\lib\\ctypes\\util.py',
   'PYMODULE'),
  ('ctypes._aix',
   'c:\\users\\francis_t\\appdata\\local\\programs\\python\\python37-32\\lib\\ctypes\\_aix.py',
   'PYMODULE'),
  ('ctypes.macholib.dyld',
   'c:\\users\\francis_t\\appdata\\local\\programs\\python\\python37-32\\lib\\ctypes\\macholib\\dyld.py',
   'PYMODULE'),
  ('ctypes.macholib',
   'c:\\users\\francis_t\\appdata\\local\\programs\\python\\python37-32\\lib\\ctypes\\macholib\\__init__.py',
   'PYMODULE'),
  ('ctypes.macholib.dylib',
   'c:\\users\\francis_t\\appdata\\local\\programs\\python\\python37-32\\lib\\ctypes\\macholib\\dylib.py',
   'PYMODULE'),
  ('ctypes.macholib.framework',
   'c:\\users\\francis_t\\appdata\\local\\programs\\python\\python37-32\\lib\\ctypes\\macholib\\framework.py',
   'PYMODULE'),
  ('ctypes',
   'c:\\users\\francis_t\\appdata\\local\\programs\\python\\python37-32\\lib\\ctypes\\__init__.py',
   'PYMODULE'),
  ('ctypes._endian',
   'c:\\users\\francis_t\\appdata\\local\\programs\\python\\python37-32\\lib\\ctypes\\_endian.py',
   'PYMODULE'),
  ('selenium.webdriver.common.actions.pointer_actions',
   'c:\\users\\francis_t\\appdata\\local\\programs\\python\\python37-32\\lib\\site-packages\\selenium\\webdriver\\common\\actions\\pointer_actions.py',
   'PYMODULE'),
  ('selenium.webdriver.common.actions.mouse_button',
   'c:\\users\\francis_t\\appdata\\local\\programs\\python\\python37-32\\lib\\site-packages\\selenium\\webdriver\\common\\actions\\mouse_button.py',
   'PYMODULE'),
  ('selenium.webdriver.common.actions.key_input',
   'c:\\users\\francis_t\\appdata\\local\\programs\\python\\python37-32\\lib\\site-packages\\selenium\\webdriver\\common\\actions\\key_input.py',
   'PYMODULE'),
  ('selenium.webdriver.common.actions.key_actions',
   'c:\\users\\francis_t\\appdata\\local\\programs\\python\\python37-32\\lib\\site-packages\\selenium\\webdriver\\common\\actions\\key_actions.py',
   'PYMODULE'),
  ('selenium.webdriver.common.actions.interaction',
   'c:\\users\\francis_t\\appdata\\local\\programs\\python\\python37-32\\lib\\site-packages\\selenium\\webdriver\\common\\actions\\interaction.py',
   'PYMODULE'),
  ('selenium.webdriver.common.actions',
   'c:\\users\\francis_t\\appdata\\local\\programs\\python\\python37-32\\lib\\site-packages\\selenium\\webdriver\\common\\actions\\__init__.py',
   'PYMODULE'),
  ('selenium.webdriver.common.utils',
   'c:\\users\\francis_t\\appdata\\local\\programs\\python\\python37-32\\lib\\site-packages\\selenium\\webdriver\\common\\utils.py',
   'PYMODULE'),
  ('selenium.webdriver.remote.command',
   'c:\\users\\francis_t\\appdata\\local\\programs\\python\\python37-32\\lib\\site-packages\\selenium\\webdriver\\remote\\command.py',
   'PYMODULE'),
  ('selenium.webdriver.common.keys',
   'c:\\users\\francis_t\\appdata\\local\\programs\\python\\python37-32\\lib\\site-packages\\selenium\\webdriver\\common\\keys.py',
   'PYMODULE'),
  ('selenium.webdriver.support.ui',
   'c:\\users\\francis_t\\appdata\\local\\programs\\python\\python37-32\\lib\\site-packages\\selenium\\webdriver\\support\\ui.py',
   'PYMODULE'),
  ('selenium.webdriver.support.wait',
   'c:\\users\\francis_t\\appdata\\local\\programs\\python\\python37-32\\lib\\site-packages\\selenium\\webdriver\\support\\wait.py',
   'PYMODULE'),
  ('selenium.webdriver.support.select',
   'c:\\users\\francis_t\\appdata\\local\\programs\\python\\python37-32\\lib\\site-packages\\selenium\\webdriver\\support\\select.py',
   'PYMODULE'),
  ('selenium.webdriver.common.by',
   'c:\\users\\francis_t\\appdata\\local\\programs\\python\\python37-32\\lib\\site-packages\\selenium\\webdriver\\common\\by.py',
   'PYMODULE'),
  ('selenium.webdriver.support.expected_conditions',
   'c:\\users\\francis_t\\appdata\\local\\programs\\python\\python37-32\\lib\\site-packages\\selenium\\webdriver\\support\\expected_conditions.py',
   'PYMODULE'),
  ('selenium.webdriver.remote.webdriver',
   'c:\\users\\francis_t\\appdata\\local\\programs\\python\\python37-32\\lib\\site-packages\\selenium\\webdriver\\remote\\webdriver.py',
   'PYMODULE'),
  ('selenium.webdriver.common.html5.application_cache',
   'c:\\users\\francis_t\\appdata\\local\\programs\\python\\python37-32\\lib\\site-packages\\selenium\\webdriver\\common\\html5\\application_cache.py',
   'PYMODULE'),
  ('selenium.webdriver.common.html5',
   'c:\\users\\francis_t\\appdata\\local\\programs\\python\\python37-32\\lib\\site-packages\\selenium\\webdriver\\common\\html5\\__init__.py',
   'PYMODULE'),
  ('selenium.webdriver.remote.file_detector',
   'c:\\users\\francis_t\\appdata\\local\\programs\\python\\python37-32\\lib\\site-packages\\selenium\\webdriver\\remote\\file_detector.py',
   'PYMODULE'),
  ('selenium.webdriver.remote.mobile',
   'c:\\users\\francis_t\\appdata\\local\\programs\\python\\python37-32\\lib\\site-packages\\selenium\\webdriver\\remote\\mobile.py',
   'PYMODULE'),
  ('selenium.webdriver.remote.switch_to',
   'c:\\users\\francis_t\\appdata\\local\\programs\\python\\python37-32\\lib\\site-packages\\selenium\\webdriver\\remote\\switch_to.py',
   'PYMODULE'),
  ('selenium.webdriver.common.alert',
   'c:\\users\\francis_t\\appdata\\local\\programs\\python\\python37-32\\lib\\site-packages\\selenium\\webdriver\\common\\alert.py',
   'PYMODULE'),
  ('selenium.webdriver.remote.errorhandler',
   'c:\\users\\francis_t\\appdata\\local\\programs\\python\\python37-32\\lib\\site-packages\\selenium\\webdriver\\remote\\errorhandler.py',
   'PYMODULE'),
  ('selenium.webdriver.remote.remote_connection',
   'c:\\users\\francis_t\\appdata\\local\\programs\\python\\python37-32\\lib\\site-packages\\selenium\\webdriver\\remote\\remote_connection.py',
   'PYMODULE'),
  ('urllib3',
   'c:\\users\\francis_t\\appdata\\local\\programs\\python\\python37-32\\lib\\site-packages\\urllib3\\__init__.py',
   'PYMODULE'),
  ('urllib3.util.retry',
   'c:\\users\\francis_t\\appdata\\local\\programs\\python\\python37-32\\lib\\site-packages\\urllib3\\util\\retry.py',
   'PYMODULE'),
  ('urllib3.util',
   'c:\\users\\francis_t\\appdata\\local\\programs\\python\\python37-32\\lib\\site-packages\\urllib3\\util\\__init__.py',
   'PYMODULE'),
  ('urllib3.util.wait',
   'c:\\users\\francis_t\\appdata\\local\\programs\\python\\python37-32\\lib\\site-packages\\urllib3\\util\\wait.py',
   'PYMODULE'),
  ('urllib3.util.ssl_',
   'c:\\users\\francis_t\\appdata\\local\\programs\\python\\python37-32\\lib\\site-packages\\urllib3\\util\\ssl_.py',
   'PYMODULE'),
  ('hmac',
   'c:\\users\\francis_t\\appdata\\local\\programs\\python\\python37-32\\lib\\hmac.py',
   'PYMODULE'),
  ('urllib3.util.response',
   'c:\\users\\francis_t\\appdata\\local\\programs\\python\\python37-32\\lib\\site-packages\\urllib3\\util\\response.py',
   'PYMODULE'),
  ('queue',
   'c:\\users\\francis_t\\appdata\\local\\programs\\python\\python37-32\\lib\\queue.py',
   'PYMODULE'),
  ('urllib3.util.connection',
   'c:\\users\\francis_t\\appdata\\local\\programs\\python\\python37-32\\lib\\site-packages\\urllib3\\util\\connection.py',
   'PYMODULE'),
  ('urllib3.contrib._appengine_environ',
   'c:\\users\\francis_t\\appdata\\local\\programs\\python\\python37-32\\lib\\site-packages\\urllib3\\contrib\\_appengine_environ.py',
   'PYMODULE'),
  ('urllib3.contrib',
   'c:\\users\\francis_t\\appdata\\local\\programs\\python\\python37-32\\lib\\site-packages\\urllib3\\contrib\\__init__.py',
   'PYMODULE'),
  ('urllib3.packages.six',
   'c:\\users\\francis_t\\appdata\\local\\programs\\python\\python37-32\\lib\\site-packages\\urllib3\\packages\\six.py',
   'PYMODULE'),
  ('urllib3.packages',
   'c:\\users\\francis_t\\appdata\\local\\programs\\python\\python37-32\\lib\\site-packages\\urllib3\\packages\\__init__.py',
   'PYMODULE'),
  ('urllib3.packages.ssl_match_hostname',
   'c:\\users\\francis_t\\appdata\\local\\programs\\python\\python37-32\\lib\\site-packages\\urllib3\\packages\\ssl_match_hostname\\__init__.py',
   'PYMODULE'),
  ('urllib3.packages.ssl_match_hostname._implementation',
   'c:\\users\\francis_t\\appdata\\local\\programs\\python\\python37-32\\lib\\site-packages\\urllib3\\packages\\ssl_match_hostname\\_implementation.py',
   'PYMODULE'),
  ('ipaddress',
   'c:\\users\\francis_t\\appdata\\local\\programs\\python\\python37-32\\lib\\ipaddress.py',
   'PYMODULE'),
  ('urllib3.util.timeout',
   'c:\\users\\francis_t\\appdata\\local\\programs\\python\\python37-32\\lib\\site-packages\\urllib3\\util\\timeout.py',
   'PYMODULE'),
  ('urllib3.util.url',
   'c:\\users\\francis_t\\appdata\\local\\programs\\python\\python37-32\\lib\\site-packages\\urllib3\\util\\url.py',
   'PYMODULE'),
  ('urllib3.util.request',
   'c:\\users\\francis_t\\appdata\\local\\programs\\python\\python37-32\\lib\\site-packages\\urllib3\\util\\request.py',
   'PYMODULE'),
  ('urllib3.response',
   'c:\\users\\francis_t\\appdata\\local\\programs\\python\\python37-32\\lib\\site-packages\\urllib3\\response.py',
   'PYMODULE'),
  ('urllib3.connection',
   'c:\\users\\francis_t\\appdata\\local\\programs\\python\\python37-32\\lib\\site-packages\\urllib3\\connection.py',
   'PYMODULE'),
  ('urllib3._collections',
   'c:\\users\\francis_t\\appdata\\local\\programs\\python\\python37-32\\lib\\site-packages\\urllib3\\_collections.py',
   'PYMODULE'),
  ('urllib3.poolmanager',
   'c:\\users\\francis_t\\appdata\\local\\programs\\python\\python37-32\\lib\\site-packages\\urllib3\\poolmanager.py',
   'PYMODULE'),
  ('urllib3.request',
   'c:\\users\\francis_t\\appdata\\local\\programs\\python\\python37-32\\lib\\site-packages\\urllib3\\request.py',
   'PYMODULE'),
  ('urllib3.filepost',
   'c:\\users\\francis_t\\appdata\\local\\programs\\python\\python37-32\\lib\\site-packages\\urllib3\\filepost.py',
   'PYMODULE'),
  ('urllib3.fields',
   'c:\\users\\francis_t\\appdata\\local\\programs\\python\\python37-32\\lib\\site-packages\\urllib3\\fields.py',
   'PYMODULE'),
  ('urllib3.exceptions',
   'c:\\users\\francis_t\\appdata\\local\\programs\\python\\python37-32\\lib\\site-packages\\urllib3\\exceptions.py',
   'PYMODULE'),
  ('urllib3.connectionpool',
   'c:\\users\\francis_t\\appdata\\local\\programs\\python\\python37-32\\lib\\site-packages\\urllib3\\connectionpool.py',
   'PYMODULE'),
  ('urllib3.util.queue',
   'c:\\users\\francis_t\\appdata\\local\\programs\\python\\python37-32\\lib\\site-packages\\urllib3\\util\\queue.py',
   'PYMODULE'),
  ('selenium.webdriver.support',
   'c:\\users\\francis_t\\appdata\\local\\programs\\python\\python37-32\\lib\\site-packages\\selenium\\webdriver\\support\\__init__.py',
   'PYMODULE'),
  ('selenium.webdriver',
   'c:\\users\\francis_t\\appdata\\local\\programs\\python\\python37-32\\lib\\site-packages\\selenium\\webdriver\\__init__.py',
   'PYMODULE'),
  ('selenium.webdriver.common.proxy',
   'c:\\users\\francis_t\\appdata\\local\\programs\\python\\python37-32\\lib\\site-packages\\selenium\\webdriver\\common\\proxy.py',
   'PYMODULE'),
  ('selenium.webdriver.common.touch_actions',
   'c:\\users\\francis_t\\appdata\\local\\programs\\python\\python37-32\\lib\\site-packages\\selenium\\webdriver\\common\\touch_actions.py',
   'PYMODULE'),
  ('selenium.webdriver.common.desired_capabilities',
   'c:\\users\\francis_t\\appdata\\local\\programs\\python\\python37-32\\lib\\site-packages\\selenium\\webdriver\\common\\desired_capabilities.py',
   'PYMODULE'),
  ('selenium.webdriver.webkitgtk.options',
   'c:\\users\\francis_t\\appdata\\local\\programs\\python\\python37-32\\lib\\site-packages\\selenium\\webdriver\\webkitgtk\\options.py',
   'PYMODULE'),
  ('selenium.webdriver.webkitgtk',
   'c:\\users\\francis_t\\appdata\\local\\programs\\python\\python37-32\\lib\\site-packages\\selenium\\webdriver\\webkitgtk\\__init__.py',
   'PYMODULE'),
  ('selenium.webdriver.webkitgtk.webdriver',
   'c:\\users\\francis_t\\appdata\\local\\programs\\python\\python37-32\\lib\\site-packages\\selenium\\webdriver\\webkitgtk\\webdriver.py',
   'PYMODULE'),
  ('selenium.webdriver.webkitgtk.service',
   'c:\\users\\francis_t\\appdata\\local\\programs\\python\\python37-32\\lib\\site-packages\\selenium\\webdriver\\webkitgtk\\service.py',
   'PYMODULE'),
  ('selenium.webdriver.android.webdriver',
   'c:\\users\\francis_t\\appdata\\local\\programs\\python\\python37-32\\lib\\site-packages\\selenium\\webdriver\\android\\webdriver.py',
   'PYMODULE'),
  ('selenium.webdriver.android',
   'c:\\users\\francis_t\\appdata\\local\\programs\\python\\python37-32\\lib\\site-packages\\selenium\\webdriver\\android\\__init__.py',
   'PYMODULE'),
  ('selenium.webdriver.phantomjs.webdriver',
   'c:\\users\\francis_t\\appdata\\local\\programs\\python\\python37-32\\lib\\site-packages\\selenium\\webdriver\\phantomjs\\webdriver.py',
   'PYMODULE'),
  ('selenium.webdriver.phantomjs',
   'c:\\users\\francis_t\\appdata\\local\\programs\\python\\python37-32\\lib\\site-packages\\selenium\\webdriver\\phantomjs\\__init__.py',
   'PYMODULE'),
  ('selenium.webdriver.phantomjs.service',
   'c:\\users\\francis_t\\appdata\\local\\programs\\python\\python37-32\\lib\\site-packages\\selenium\\webdriver\\phantomjs\\service.py',
   'PYMODULE'),
  ('selenium.webdriver.blackberry.webdriver',
   'c:\\users\\francis_t\\appdata\\local\\programs\\python\\python37-32\\lib\\site-packages\\selenium\\webdriver\\blackberry\\webdriver.py',
   'PYMODULE'),
  ('selenium.webdriver.blackberry',
   'c:\\users\\francis_t\\appdata\\local\\programs\\python\\python37-32\\lib\\site-packages\\selenium\\webdriver\\blackberry\\__init__.py',
   'PYMODULE'),
  ('selenium.webdriver.safari.webdriver',
   'c:\\users\\francis_t\\appdata\\local\\programs\\python\\python37-32\\lib\\site-packages\\selenium\\webdriver\\safari\\webdriver.py',
   'PYMODULE'),
  ('selenium.webdriver.safari',
   'c:\\users\\francis_t\\appdata\\local\\programs\\python\\python37-32\\lib\\site-packages\\selenium\\webdriver\\safari\\__init__.py',
   'PYMODULE'),
  ('selenium.webdriver.safari.remote_connection',
   'c:\\users\\francis_t\\appdata\\local\\programs\\python\\python37-32\\lib\\site-packages\\selenium\\webdriver\\safari\\remote_connection.py',
   'PYMODULE'),
  ('selenium.webdriver.safari.service',
   'c:\\users\\francis_t\\appdata\\local\\programs\\python\\python37-32\\lib\\site-packages\\selenium\\webdriver\\safari\\service.py',
   'PYMODULE'),
  ('selenium.webdriver.opera.webdriver',
   'c:\\users\\francis_t\\appdata\\local\\programs\\python\\python37-32\\lib\\site-packages\\selenium\\webdriver\\opera\\webdriver.py',
   'PYMODULE'),
  ('selenium.webdriver.opera',
   'c:\\users\\francis_t\\appdata\\local\\programs\\python\\python37-32\\lib\\site-packages\\selenium\\webdriver\\opera\\__init__.py',
   'PYMODULE'),
  ('selenium.webdriver.opera.options',
   'c:\\users\\francis_t\\appdata\\local\\programs\\python\\python37-32\\lib\\site-packages\\selenium\\webdriver\\opera\\options.py',
   'PYMODULE'),
  ('selenium.webdriver.edge.webdriver',
   'c:\\users\\francis_t\\appdata\\local\\programs\\python\\python37-32\\lib\\site-packages\\selenium\\webdriver\\edge\\webdriver.py',
   'PYMODULE'),
  ('selenium.webdriver.edge',
   'c:\\users\\francis_t\\appdata\\local\\programs\\python\\python37-32\\lib\\site-packages\\selenium\\webdriver\\edge\\__init__.py',
   'PYMODULE'),
  ('selenium.webdriver.edge.service',
   'c:\\users\\francis_t\\appdata\\local\\programs\\python\\python37-32\\lib\\site-packages\\selenium\\webdriver\\edge\\service.py',
   'PYMODULE'),
  ('selenium.webdriver.ie.options',
   'c:\\users\\francis_t\\appdata\\local\\programs\\python\\python37-32\\lib\\site-packages\\selenium\\webdriver\\ie\\options.py',
   'PYMODULE'),
  ('selenium.webdriver.ie',
   'c:\\users\\francis_t\\appdata\\local\\programs\\python\\python37-32\\lib\\site-packages\\selenium\\webdriver\\ie\\__init__.py',
   'PYMODULE'),
  ('selenium.webdriver.ie.webdriver',
   'c:\\users\\francis_t\\appdata\\local\\programs\\python\\python37-32\\lib\\site-packages\\selenium\\webdriver\\ie\\webdriver.py',
   'PYMODULE'),
  ('selenium.webdriver.ie.service',
   'c:\\users\\francis_t\\appdata\\local\\programs\\python\\python37-32\\lib\\site-packages\\selenium\\webdriver\\ie\\service.py',
   'PYMODULE'),
  ('selenium.webdriver.chrome.options',
   'c:\\users\\francis_t\\appdata\\local\\programs\\python\\python37-32\\lib\\site-packages\\selenium\\webdriver\\chrome\\options.py',
   'PYMODULE'),
  ('selenium.webdriver.chrome',
   'c:\\users\\francis_t\\appdata\\local\\programs\\python\\python37-32\\lib\\site-packages\\selenium\\webdriver\\chrome\\__init__.py',
   'PYMODULE'),
  ('selenium.webdriver.chrome.webdriver',
   'c:\\users\\francis_t\\appdata\\local\\programs\\python\\python37-32\\lib\\site-packages\\selenium\\webdriver\\chrome\\webdriver.py',
   'PYMODULE'),
  ('selenium.webdriver.chrome.service',
   'c:\\users\\francis_t\\appdata\\local\\programs\\python\\python37-32\\lib\\site-packages\\selenium\\webdriver\\chrome\\service.py',
   'PYMODULE'),
  ('selenium.webdriver.chrome.remote_connection',
   'c:\\users\\francis_t\\appdata\\local\\programs\\python\\python37-32\\lib\\site-packages\\selenium\\webdriver\\chrome\\remote_connection.py',
   'PYMODULE'),
  ('selenium.webdriver.firefox.options',
   'c:\\users\\francis_t\\appdata\\local\\programs\\python\\python37-32\\lib\\site-packages\\selenium\\webdriver\\firefox\\options.py',
   'PYMODULE'),
  ('selenium.webdriver.firefox',
   'c:\\users\\francis_t\\appdata\\local\\programs\\python\\python37-32\\lib\\site-packages\\selenium\\webdriver\\firefox\\__init__.py',
   'PYMODULE'),
  ('selenium.webdriver.firefox.firefox_binary',
   'c:\\users\\francis_t\\appdata\\local\\programs\\python\\python37-32\\lib\\site-packages\\selenium\\webdriver\\firefox\\firefox_binary.py',
   'PYMODULE'),
  ('selenium.webdriver.firefox.firefox_profile',
   'c:\\users\\francis_t\\appdata\\local\\programs\\python\\python37-32\\lib\\site-packages\\selenium\\webdriver\\firefox\\firefox_profile.py',
   'PYMODULE'),
  ('xml.dom.minidom',
   'c:\\users\\francis_t\\appdata\\local\\programs\\python\\python37-32\\lib\\xml\\dom\\minidom.py',
   'PYMODULE'),
  ('xml.dom.pulldom',
   'c:\\users\\francis_t\\appdata\\local\\programs\\python\\python37-32\\lib\\xml\\dom\\pulldom.py',
   'PYMODULE'),
  ('xml.dom.expatbuilder',
   'c:\\users\\francis_t\\appdata\\local\\programs\\python\\python37-32\\lib\\xml\\dom\\expatbuilder.py',
   'PYMODULE'),
  ('xml.dom.NodeFilter',
   'c:\\users\\francis_t\\appdata\\local\\programs\\python\\python37-32\\lib\\xml\\dom\\NodeFilter.py',
   'PYMODULE'),
  ('xml.dom.xmlbuilder',
   'c:\\users\\francis_t\\appdata\\local\\programs\\python\\python37-32\\lib\\xml\\dom\\xmlbuilder.py',
   'PYMODULE'),
  ('xml.dom.minicompat',
   'c:\\users\\francis_t\\appdata\\local\\programs\\python\\python37-32\\lib\\xml\\dom\\minicompat.py',
   'PYMODULE'),
  ('xml.dom.domreg',
   'c:\\users\\francis_t\\appdata\\local\\programs\\python\\python37-32\\lib\\xml\\dom\\domreg.py',
   'PYMODULE'),
  ('xml.dom',
   'c:\\users\\francis_t\\appdata\\local\\programs\\python\\python37-32\\lib\\xml\\dom\\__init__.py',
   'PYMODULE'),
  ('selenium.webdriver.firefox.webdriver',
   'c:\\users\\francis_t\\appdata\\local\\programs\\python\\python37-32\\lib\\site-packages\\selenium\\webdriver\\firefox\\webdriver.py',
   'PYMODULE'),
  ('selenium.webdriver.firefox.webelement',
   'c:\\users\\francis_t\\appdata\\local\\programs\\python\\python37-32\\lib\\site-packages\\selenium\\webdriver\\firefox\\webelement.py',
   'PYMODULE'),
  ('selenium.webdriver.firefox.service',
   'c:\\users\\francis_t\\appdata\\local\\programs\\python\\python37-32\\lib\\site-packages\\selenium\\webdriver\\firefox\\service.py',
   'PYMODULE'),
  ('selenium.webdriver.firefox.remote_connection',
   'c:\\users\\francis_t\\appdata\\local\\programs\\python\\python37-32\\lib\\site-packages\\selenium\\webdriver\\firefox\\remote_connection.py',
   'PYMODULE'),
  ('selenium.webdriver.firefox.extension_connection',
   'c:\\users\\francis_t\\appdata\\local\\programs\\python\\python37-32\\lib\\site-packages\\selenium\\webdriver\\firefox\\extension_connection.py',
   'PYMODULE'),
  ('selenium',
   'c:\\users\\francis_t\\appdata\\local\\programs\\python\\python37-32\\lib\\site-packages\\selenium\\__init__.py',
   'PYMODULE'),
  ('pathlib',
   'c:\\users\\francis_t\\appdata\\local\\programs\\python\\python37-32\\lib\\pathlib.py',
   'PYMODULE'),
  ('PyQt5',
   'c:\\users\\francis_t\\appdata\\local\\programs\\python\\python37-32\\lib\\site-packages\\PyQt5\\__init__.py',
   'PYMODULE')])
